{
  "page": 1,
  "total_results": 1263,
  "total_pages": 64,
  "results": [
    {
      "popularity": 14.231,
      "id": 7942,
      "video": false,
      "vote_count": 386,
      "vote_average": 6.2,
      "title": "Run, Fatboy, Run",
      "release_date": "2007-10-10",
      "original_language": "en",
      "original_title": "Run Fatboy Run",
      "genre_ids": [
        35,
        10749
      ],
      "backdrop_path": "/ataSToX6mARHLbv0NpEmKr7IJJs.jpg",
      "adult": false,
      "overview": "Five years after jilting his pregnant fiancée on their wedding day, out-of-shape Dennis decides to run a marathon to win her back.",
      "poster_path": "/s6ehbUfScpU0408ahsxCzlUwAzG.jpg"
    },
    {
      "popularity": 17.225,
      "vote_count": 2737,
      "video": false,
      "poster_path": "/z0MafJgUnVyVbczicYMkPKKHkBi.jpg",
      "id": 7443,
      "adult": false,
      "backdrop_path": "/b0Zlbk19oTLjKPvb807suPFKBtN.jpg",
      "original_language": "en",
      "original_title": "Chicken Run",
      "genre_ids": [
        16,
        35,
        10751
      ],
      "title": "Chicken Run",
      "vote_average": 6.6,
      "overview": "Having been hopelessly repressed and facing eventual certain death at the British chicken farm where they are held, Ginger the chicken along with the help of Rocky the American rooster decide to rebel and lead their fellow chickens in a great escape from the murderous farmers Mr. and Mrs. Tweedy and their farm of doom.",
      "release_date": "2000-06-21"
    },
    {
      "popularity": 9.85,
      "vote_count": 435,
      "video": false,
      "poster_path": "/iBtkwot48QkgYpPfjceCgyK1Rhz.jpg",
      "id": 10803,
      "adult": false,
      "backdrop_path": "/a68m6hfvFLctuq1IhrefWwHZLa2.jpg",
      "original_language": "en",
      "original_title": "Logan's Run",
      "genre_ids": [
        28,
        878
      ],
      "title": "Logan's Run",
      "vote_average": 6.7,
      "overview": "An idyllic sci-fi future has one major drawback: All citizens get a chance of being 'renewed' in a Civic Ceremony at their 30th birthday, unless they run and escape before their time comes.",
      "release_date": "1976-06-23"
    },
    {
      "popularity": 16.639,
      "vote_count": 1761,
      "video": false,
      "poster_path": "/aqNJrAxudMRNo8jg3HOUQqdl2xr.jpg",
      "id": 241554,
      "adult": false,
      "backdrop_path": "/rSf0RYkPiMo9TyjHs2vI8rHlmfF.jpg",
      "original_language": "en",
      "original_title": "Run All Night",
      "genre_ids": [
        28,
        18,
        53
      ],
      "title": "Run All Night",
      "vote_average": 6.4,
      "overview": "Brooklyn mobster and prolific hit man Jimmy Conlon has seen better days. Longtime best friend of a mob boss, Jimmy is haunted by the sins of his past—as well as a dogged police detective who’s been one step behind Jimmy for 30 years. But when Jimmy’s estranged son becomes a target, Jimmy must make a choice between the crime family he chose and the real family he abandoned long ago. Now, with nowhere safe to turn, Jimmy has just one night to figure out exactly where his loyalties lie and to see if he can finally make things right.",
      "release_date": "2015-03-13"
    },
    {
      "popularity": 8.21,
      "vote_count": 438,
      "video": false,
      "poster_path": "/avLXoDhPPbKgdOU7wsoVlOzYfUP.jpg",
      "id": 9013,
      "adult": false,
      "backdrop_path": "/t2qRUwdbqacM0SmHGJxkgneyzR7.jpg",
      "original_language": "en",
      "original_title": "Midnight Run",
      "genre_ids": [
        12,
        35,
        80
      ],
      "title": "Midnight Run",
      "vote_average": 7.2,
      "overview": "An accountant embezzles $15 million of mob money, jumps bail and is chased by bounty hunters, the FBI, and the Mafia.",
      "release_date": "1988-07-20"
    },
    {
      "popularity": 15.226,
      "vote_count": 247,
      "video": false,
      "poster_path": "/mmq1LQhuhdW2BF61yM4ZuGZb7Uo.jpg",
      "id": 10413,
      "adult": false,
      "backdrop_path": "/9snG3oqEgPMjkhTazqbjfOU454d.jpg",
      "original_language": "en",
      "original_title": "Nowhere to Run",
      "genre_ids": [
        28
      ],
      "title": "Nowhere to Run",
      "vote_average": 5.8,
      "overview": "Escaped convict Sam Gillen single-handedly takes on ruthless developers who are determined to evict a widow with two young children.",
      "release_date": "1993-01-15"
    },
    {
      "popularity": 9.239,
      "id": 109513,
      "video": false,
      "vote_count": 318,
      "vote_average": 5.7,
      "title": "Hit & Run",
      "release_date": "2012-08-22",
      "original_language": "en",
      "original_title": "Hit & Run",
      "genre_ids": [
        28,
        35,
        10749
      ],
      "backdrop_path": "/tRRL9pIKXad7fgaVrMvUFXkfFxC.jpg",
      "adult": false,
      "overview": "When former getaway driver, Charlie Bronson jeopardises his Witness Protection Plan identity in order to help his girlfriend get to Los Angeles, the feds and Charlie's former gang chase them on the road.",
      "poster_path": "/fKlHDj9vGuapS3MKpezwlKFqz4w.jpg"
    },
    {
      "popularity": 14.142,
      "vote_count": 282,
      "video": false,
      "poster_path": "/5OkKXKDtZDDJADWu88wQa1nynsQ.jpg",
      "id": 11286,
      "adult": false,
      "backdrop_path": "/4jGa1eKlByq8rAknmUpgYUcdkgn.jpg",
      "original_language": "en",
      "original_title": "The Cannonball Run",
      "genre_ids": [
        28,
        35
      ],
      "title": "The Cannonball Run",
      "vote_average": 6.2,
      "overview": "A cross-country road race is based on an actual event, the Cannonball Baker Sea to Shining Sea Memorial Trophy Dash, organized by Brock Yates to protest the 55 mph speed limit then in effect in the U.S. The Cannonball was named for Erwin G. \"Cannonball\" Baker, who in the roaring 20's rode his motorcycle across the country. Many of the characters are based on ruses developed by real Cannonball racers over the several years that the event was run.",
      "release_date": "1981-06-19"
    },
    {
      "popularity": 15.933,
      "vote_count": 138,
      "video": false,
      "poster_path": "/6Z5wXVG5V05WigfjMXGm87ipkvZ.jpg",
      "id": 11950,
      "adult": false,
      "backdrop_path": "/wYvnqSrZssK5oNOQbs6FrpRoDOQ.jpg",
      "original_language": "en",
      "original_title": "Cannonball Run II",
      "genre_ids": [
        28,
        35
      ],
      "title": "Cannonball Run II",
      "vote_average": 5.3,
      "overview": "The original characters from the first Cannonball Run movie compete in an illegal race across the country once more in various cars and trucks.",
      "release_date": "1984-06-29"
    },
    {
      "popularity": 3.532,
      "vote_count": 32,
      "video": false,
      "poster_path": "/m0vcux2QJ2K9MGBqi6O9TLrSwgU.jpg",
      "id": 26334,
      "adult": false,
      "backdrop_path": "/e1rxoR1FLT5m8ptUpKy4FaKy6KT.jpg",
      "original_language": "en",
      "original_title": "Run! Bitch Run!",
      "genre_ids": [
        27,
        53
      ],
      "title": "Run! Bitch Run!",
      "vote_average": 4.4,
      "overview": "Things go horribly wrong when Catherine and Rebecca, two Catholic School girls, knock on the wrong door while selling Religious paraphernalia.",
      "release_date": "2009-03-15"
    },
    {
      "popularity": 5.878,
      "id": 18784,
      "video": false,
      "vote_count": 56,
      "vote_average": 7.3,
      "title": "Run Silent, Run Deep",
      "release_date": "1958-03-27",
      "original_language": "en",
      "original_title": "Run Silent, Run Deep",
      "genre_ids": [
        18,
        10752
      ],
      "backdrop_path": "/8ZdPqz9Qo55mgHu0340eLABoarx.jpg",
      "adult": false,
      "overview": "The captain of a submarine sunk by the Japanese during WWII is finally given a chance to skipper another sub after a year of working a desk job. His singleminded determination for revenge against the destroyer that sunk his previous vessel puts his new crew in unneccessary danger.",
      "poster_path": "/ulxNcQuQ0ERdfLYE8aopUgVUmAw.jpg"
    },
    {
      "popularity": 14.684,
      "vote_count": 139,
      "video": false,
      "poster_path": "/l8JKbUCIe4y1LujxMMjbxG6ueH.jpg",
      "id": 475759,
      "adult": false,
      "backdrop_path": "/iiUizZMPhzGFo743aH0mz1GTLdx.jpg",
      "original_language": "en",
      "original_title": "2048: Nowhere to Run",
      "genre_ids": [
        28,
        878,
        53
      ],
      "title": "2048: Nowhere to Run",
      "vote_average": 6.8,
      "overview": "“2048: Nowhere to Run” takes place one year before the events of Blade Runner 2049. The short film focuses on Sapper, a man who is trying to make it through life day-by-day without turning back to his old ways. We’re introduced to both the gentle nature of Sapper and the violence he’s capable of when set off.",
      "release_date": "2017-09-14"
    },
    {
      "popularity": 5.377,
      "id": 185497,
      "video": false,
      "vote_count": 23,
      "vote_average": 4.4,
      "title": "Assassins Run",
      "release_date": "2013-04-23",
      "original_language": "en",
      "original_title": "Assassins Run",
      "genre_ids": [
        28,
        80,
        53
      ],
      "backdrop_path": "/1IkJRpetczgCxPOA9c6WDu3TlNa.jpg",
      "adult": false,
      "overview": "Maya becomes the target of the Russian mafia after her husband, a successful American businessman, is killed.",
      "poster_path": "/9PivERaRZwxeSm9StmntQw5tw9V.jpg"
    },
    {
      "popularity": 7.99,
      "id": 11485,
      "video": false,
      "vote_count": 370,
      "vote_average": 7.2,
      "title": "Take the Money and Run",
      "release_date": "1969-08-18",
      "original_language": "en",
      "original_title": "Take the Money and Run",
      "genre_ids": [
        35,
        80
      ],
      "backdrop_path": "/vPs6837kNRahxOzNP8d4m0JEPeI.jpg",
      "adult": false,
      "overview": "Virgil Starkwell is intent on becoming a notorious bank robber. Unfortunately for Virgil and his not-so-budding career, he is completely incompetent.",
      "poster_path": "/eYVSsMMfO2JeaiYh8n5XI8Zag8A.jpg"
    },
    {
      "popularity": 7.448,
      "vote_count": 63,
      "video": false,
      "poster_path": "/lt82eKlcuL6XzuFPygvfV1WSYh3.jpg",
      "id": 57353,
      "adult": false,
      "backdrop_path": "/zDtD5gL4JKS6lga9tip7MxpnPIQ.jpg",
      "original_language": "en",
      "original_title": "Cat Run",
      "genre_ids": [
        28,
        35,
        53
      ],
      "title": "Cat Run",
      "vote_average": 5.9,
      "overview": "When a sexy, high-end escort holds the key evidence to a scandalous government cover-up, two bumbling young detectives become her unlikely protectors from a ruthless assassin hired to silence her.",
      "release_date": "2011-04-01"
    },
    {
      "popularity": 3.064,
      "id": 158780,
      "video": false,
      "vote_count": 8,
      "vote_average": 5.5,
      "title": "Run",
      "release_date": "2004-01-29",
      "original_language": "hi",
      "original_title": "Run",
      "genre_ids": [],
      "backdrop_path": "/jyZSz2QirMLZxyDtFF8c8an7iRa.jpg",
      "adult": false,
      "overview": "This action movie is filled with romance and adventure. As Abhisek fights for his life against the forces of crime and injustice, he meets Bhoomika, who captures his heart.",
      "poster_path": "/8ODHTPhNoAagT0E6I5fNySfQBip.jpg"
    },
    {
      "popularity": 2.946,
      "id": 14923,
      "video": false,
      "vote_count": 33,
      "vote_average": 6,
      "title": "Run Ronnie Run",
      "release_date": "2002-09-16",
      "original_language": "en",
      "original_title": "Run Ronnie Run",
      "genre_ids": [
        35
      ],
      "backdrop_path": "/yThONZ2GUHTaQcjgyJBUoaaD4fu.jpg",
      "adult": false,
      "overview": "A redneck with an uncanny knack for getting arrested becomes the star of his own reality program.",
      "poster_path": "/lJf4m24HUn2IXF4xWDNiJTYLTo4.jpg"
    },
    {
      "popularity": 9.277,
      "id": 24001,
      "video": false,
      "vote_count": 120,
      "vote_average": 5.1,
      "title": "The Hills Run Red",
      "release_date": "2009-06-12",
      "original_language": "en",
      "original_title": "The Hills Run Red",
      "genre_ids": [
        27
      ],
      "backdrop_path": "/7OGUDZ683wCxIRdLgjCsYm4H5Mp.jpg",
      "adult": false,
      "overview": "A group of young horror fans go searching for a film that mysteriously vanished years ago but instead find that the demented killer from the movie is real, and he's thrilled to meet fans who will die gruesomely for his art.",
      "poster_path": "/eNNZbR99ZZaO0wB791w3KLvUliW.jpg"
    },
    {
      "popularity": 3.423,
      "id": 176124,
      "video": false,
      "vote_count": 34,
      "vote_average": 6.2,
      "title": "Home Run",
      "release_date": "2013-04-19",
      "original_language": "en",
      "original_title": "Home Run",
      "genre_ids": [
        18
      ],
      "backdrop_path": "/awfFoaZCYVcGOTaWIR8hY1Kakvo.jpg",
      "adult": false,
      "overview": "A pro ball player with a substance abuse problem is forced into rehab in his hometown, finding new hope when he gets honest about his checkered past, and takes on coaching duties for a misfit Little League team",
      "poster_path": "/x6j0NsUrstM8mDk4lUmaRI5SXQh.jpg"
    },
    {
      "popularity": 1.906,
      "id": 101054,
      "video": false,
      "vote_count": 6,
      "vote_average": 5.7,
      "title": "Eat and Run",
      "release_date": "1987-02-20",
      "original_language": "en",
      "original_title": "Eat and Run",
      "genre_ids": [
        27,
        35,
        878
      ],
      "backdrop_path": "/bLjJwNVJWThidMCLVoDTf2hrJlO.jpg",
      "adult": false,
      "overview": "A humanoid alien lands on earth, and soon discovers he likes to eat Italian. Italian people, that is. Incompetent detective McSorely is the only one with a clue about what's going on, and even his grasp of the situation isn't too firm. The rest of the police force thinks he's crazy, while the alien continues sampling the Italian cuisine of New York City.",
      "poster_path": "/7TISovbPDCB4N59Kfe14KMtdxJ3.jpg"
    }
  ]
}